Canonical SMILES,Toxicity Value
Cc1ccc(C(C)C)cc1O,2699.982024
Nc1ccncc1,326.9756791
CC(C)NNC(=O)c1ccncc1,1999.966522
CN(C)C(=S)SSC(=S)N(C)C,999.8170057
CC(Cl)(Cl)Cl,15799.40783
,793.9999995
C[N+](C)(C)C,99.99055932
,3386.687364
CC1(C)C(=O)N(Br)C(=O)N1Br,19999.79017
,828.8503865
O=C(Cl)CCl,315.9916062
CC(C)(OO)c1ccccc1,1199.976345
O=c1n(Cl)c(=O)n(Cl)c(=O)n1Cl,5009.999998
Cc1cc(C)c(N)c(C)c1,220.0
CCN(CC)C(=O)Cl,12839.62122
Cc1cccc2ccccc12,7499.94726
c1ccc(Nc2cccc3ccccc23)cc1,7999.74463
c1ccc2n[nH]nc2c1,449.9735579
c1ccc2scnc2c1,199.9985205
Nc1ccccc1N,1499.944519
Oc1ccccc1Cl,1579.90168
Nc1ccc(Cl)c(Cl)c1,299.983335
O=C(O)c1cc(S(=O)(=O)O)ccc1O,7940.145564
O=Cc1ccco1,646.036322
O=[N+]([O-])c1ccccc1,599.9951258
CN(N=O)c1ccc(N=O)cc1,1499.981836
O=[N+]([O-])c1ccc(O)cc1,1499.999998
N#CC1CCCCC1,199.996336
N#Cc1cccnc1,3999.92316
CNC1CCCCC1,1999.929331
c1ccc(OP(Oc2ccccc2)Oc2ccccc2)cc1,5000.177259
O=C=Nc1ccc(Cl)cc1,5999.687433
CCOC(=O)CC,14255.58126
COC(C)(C)CC(C)=O,2999.838691
Nc1cccc(N)c1,1583.860409
OC1CCCCC1,793.9920735
Cc1cccnc1,200.0021475
CCCCCl,20000.21603
COCCOC,1999.955618
CCCCN=C=O,5999.818423
C1CCCNCC1,1259.911068
N#CCCCCC#N,0.999963013
CCCCCCCCN,1999.891679
O=P(OCCCl)(OCCCl)OCCCl,2000.06305
Oc1ccc(Cl)cc1Cc1ccccc1,5009.931273
Oc1ccc(Cl)cc1Cl,3159.941841
CCCCCCCCCCCCCCCC[n+]1ccccc1,1999.724175
CCCCCCCCC=O,4999.929694
CC1(C)C(=O)N(Br)C(=O)N1Cl,1999.983433
CCOP(=O)(OCC)SCCSCC,4.999129075
N#CCc1ccc(Cl)cc1,199.992084
CC(=O)C=CC=C(C)CCC=C(C)C,4999.947995
,9999.903903
NCCCCCCNCCCCCCN,199.9953571
,9999.887393
CN(C)P(=O)(OP(=O)(N(C)C)N(C)C)N(C)C,19.99979041
CCOP(=S)(OCC)OCCSCC,99.98258135
CCOP(=S)(OCC)SCCSCC,4.999763135
COS(=O)(=O)F,455.0119633
FC(Cl)(C(Cl)(Cl)Cl)C(Cl)(Cl)Cl,249.9983509
NCCCCCCF,0.249993707
Nc1c(N=Nc2ccc(-c3ccc(N=Nc4cc(S(=O)(=O)O)c5ccccc5c4N)cc3)cc2)cc(S(=O)(=O)O)c2ccccc12,3999.914201
CN(N=O)c1ccccc1,391.6520999
O=[N+]([O-])c1ccc(O)c(Cl)c1,1999.942383
CC(=O)C=Cc1ccco1,50.00000004
ClCc1ccc(CCl)cc1,500.9771042
Nc1ccc(N)cc1,4999.815059
N#CCNCC#N,1499.921139
CCSCCSP(=S)(OC)OC,100.0166423
,1359.959717
CCSCCOP(=S)(OC)OC,75.00293112
C=CC(=O)NCO,15999.20874
CC1CC(C)S(=O)(=O)C1,3600.072862
CCCCC(CC)COP(=O)(O)O,1999.999998
CC(=O)OCC1=CCC2CC1C2(C)C,4999.897051
CCCCCCCCCCCC[N+](C)(C)C,799.9859921
O=[N+]([O-])c1cc[n+]([O-])cc1,360.005139
,69.99741952
,2000.144017
N#CCCOCCC#N,4199.898502
O=C(O)CC(C(=O)O)C(CC(=O)O)C(=O)O,8000.000008
CC1(C)C2CCC1(C)C(Oc1ccc(N)cc1)C2,5009.877491
O=[N+]([O-])c1ccc(Oc2ccc(Cl)cc2Cl)cc1,3269.907917
Cc1cc(C)c(O)c(C(C)(C)C)c1,16.9995232
CCCCCCCCOC(=O)COc1ccc(Cl)cc1Cl,1999.669924
CN(C)c1ccc(N)cc1,59.9964757
,12.5997345
CCN(CC)c1ccc(N)cc1,124.9984781
C=CC(=O)NC(C)C,1579.999999
CC(=O)OCc1ccc(C)cc1,4999.8782
C(OCC1CO1)C1CO1,1499.965421
O=c1[nH]c(=O)n(Cl)c(=O)n1Cl,3159.920185
COP(=S)(Cl)OC,315.9960635
CCOP(=S)(Cl)OCC,199.9936378
CCOP(=S)(OC)Oc1ccc([N+](=O)[O-])cc1,100.0007214
N#CC(Cl)CCl,793.9999996
Nc1cc(S(=O)(=O)O)cc2cc(S(=O)(=O)O)c(N=Nc3ccc(-c4ccc(N=Nc5c(S(=O)(=O)O)cc6cc(S(=O)(=O)O)cc(N)c6c5O)cc4)cc3)c(O)c12,1999.905309
C=Cc1ccc(OC(C)=O)cc1,199.9901348
CC(C)(N=C=O)c1cccc(C(C)(C)N=C=O)c1,1999.967252
CC(C)(O)CN,1960.043978
O=C=Nc1cccc(Cl)c1,7939.586369
C=CCOC(=O)CCCCC(=O)OCC=C,999.9911601
CC(C)CCC(C)Nc1ccc(Nc2ccccc2)cc1,7939.128501
ClC(Cl)(Cl)CC1CO1,1999.9772
O=S1(=O)CC(Cl)(Cl)C(Cl)(Cl)C1,199.9589074
N#[N+][N-]P(=O)(c1ccccc1)c1ccccc1,2399.940792
CC(=O)c1c(O)cc(C)oc1=O,5000.059468
O=C1CCCCCCCC(=O)OCCO1,7939.962944
CCCCCCCCCC=CC=O,4999.808018
O=C(O)CS,300.0032567
C=CCOC(=O)COCC(=O)OCC=C,999.9673227
C=C(Cl)CO,24.99864902
N#CC(C#N)=C1SCS1,125.9844765
O=C(OCCCl)c1ccccc1C(=O)OCCCl,1259.956721
N#CSCSC#N,398.009171
CCC=CCC=O,4999.745275
CC1(C)CC(=O)CC(C)(C#N)C1,15999.41903
,2000.027347
CCN1CN(CC)CN(CC)C1,1999.906589
Clc1ccc(-c2ccc(Cl)c(Cl)c2Cl)c(Cl)c1Cl,2000.099757
Clc1cc(Cl)c(-c2c(Cl)c(Cl)c(-c3c(Cl)cc(Cl)c(Cl)c3Cl)c(Cl)c2Cl)cc1Cl,3159.974068
Clc1cc(Cl)cc(-c2cc(Cl)cc(Cl)c2)c1,1269.034767
CCCCCCC1CCCC1=O,5000.0
CCOP(=O)(OCC)SCc1ccccc1,575.9889362
Cc1nccn1Cc1ccccc1,199.9988385
Cc1ccc(SN2C(=O)c3ccccc3C2=O)cc1,1579.853335
C1CCC2OCCOCCOC3CCCCC3OCCOCCOC2C1,129.9993019
CCNC(=O)C(C)OC(=O)Nc1ccccc1,499.9978839
CNC(C)C#N,50.09880883
CC=CC=CC=CC(C)=O,4999.85315
CSCCC(O)C#N,126.0
CC(C)(C)c1ccc(CCC=O)cc1,4999.842338
CCCC=CC(OC)OC,4999.861312
CCSC(SCC)=C(C#N)C#N,31.5974505
CCOC(=O)C1OC1C,2829.934765
CCC(CC(C)CC)=NO,4999.999995
CCN1CC(C)OC1=NP(=O)(OC)SC,1.499964326
Cc1nc(N(C)C)nc(OC(=O)N(C)C)c1C,899.9962239
O=C(CC(C(=O)OC1CCCCC1)S(=O)(=O)O)OC1CCCCC1,4999.393014
C#CC(C)(C)NC(=O)c1cc(Cl)cc(Cl)c1,3159.851952
CCCCCC1C(=O)CCC1CC(=O)OC,4999.867445
Cc1ccccc1OP(=O)(Oc1ccccc1)Oc1ccccc1,3159.860719
CCC(=O)C=CC=C(C)CCC=C(C)C,4999.781902
CC(C)c1cccc(C(C)C)c1N=C=O,1259.969009
,8032.019261
OCC=CCl,169.9908134
N#CC(O)CCl,24.99905232
CCOCN(C(=O)CCl)c1c(C)cccc1CC,1259.990657
COC1(C)CCCCCCCCCCC1,4999.835203
CCCCN1C(=O)c2cccc([N+](=O)[O-])c2C1=O,1999.935545
CCCCN1C(=O)c2ccc([N+](=O)[O-])cc2C1=O,1999.935545
O=c1oc2ccccc2c(O)c1C1CC(c2ccc(-c3ccc(Br)cc3)cc2)Cc2ccccc21,2.499875817
CCCSP(=O)(OCC)Oc1ccc(Sc2ccc(Cl)cc2)cc1,1249.984488
CC(=O)OCc1ccc(C(C)C)cc1,4999.791944
CCOC(=S)SCC#N,50.11522406
O=C(O)c1cccc(Oc2ccc(C(F)(F)F)cc2Cl)c1,4999.968421
CB1P(C)B(C)P(C)B(C)P1C,600.0890671
COC(C)(N)CC(C)O,1379.98964
CC(C)OC(Cl)=C(Cl)C(Cl)=C(Cl)Cl,1000.010548
CC(C)(C)CCCCCCCCCCCCCCCN,1999.689643
CC(=CC1C(C)=CCCC1(C)C)C(C)O,4999.880008
CCOCN(C(=O)CCl)c1c(C)cccc1OC(C)C,7939.788121
CCOC(=O)C(Br)C#N,315.9967083
N#CC(Cl)CS(=O)(=O)c1ccccc1,999.9651705
CC(C)CCN(C)C,2000.000001
Cc1ccc(O)c(C(C)(C)C)c1,2199.892846
CNC(=O)Oc1ccc(C)c(C)c1,1000.005579
CCOP(=S)(OCC)SCC(=O)NC(N)=O,19.99895218
N#CCCCCCN,3159.830981
CSCCC=O,2499.904004
CC(C)(C#N)C(C)(C)C#N,79.39533616
C=C(C)C(=O)OCCc1ccccc1,4999.947432
COP(=S)(OC)SCCSC,49.99311327
CN(C1CCCCC1)C1CCCCC1,1999.897619
CC(CC(C)C)=NC(C)CC(C)C,399.9803641
CCCOCN(C(=O)CCl)c1c(C)cccc1OCC,1999.946629
CCCCOc1c(Cl)c(Cl)c(Cl)c(Cl)c1Cl,1999.714682
OB(O)c1ccccc1,4499.926185
